{"level":"info","message":"App starts on port  3017","timestamp":"2017-10-25T04:11:05.043Z"}
{"date":"Wed Oct 25 2017 07:11:05 GMT+0300 (EEST)","process":{"pid":23119,"uid":1000,"gid":1000,"cwd":"/home/azaviruha/src/interview/Easypay/server","execPath":"/home/azaviruha/.nvm/versions/node/v8.7.0/bin/node","version":"v8.7.0","argv":["/home/azaviruha/.nvm/versions/node/v8.7.0/bin/node","/home/azaviruha/src/interview/Easypay/server/bin/www.js"],"memoryUsage":{"rss":47202304,"heapTotal":21823488,"heapUsed":14401096,"external":615457}},"os":{"loadavg":[0.2685546875,0.21630859375,0.2490234375],"uptime":298440},"trace":[{"column":11,"file":"util.js","function":"Object._errnoException","line":1021,"method":"_errnoException","native":false},{"column":20,"file":"util.js","function":"_exceptionWithHostPort","line":1043,"method":null,"native":false},{"column":14,"file":"net.js","function":"Server.setupListenHandle [as _listen2]","line":1344,"method":"setupListenHandle [as _listen2]","native":false},{"column":12,"file":"net.js","function":"listenInCluster","line":1385,"method":null,"native":false},{"column":7,"file":"net.js","function":"Server.listen","line":1469,"method":"listen","native":false},{"column":24,"file":"/home/azaviruha/src/interview/Easypay/server/bin/www.js","function":null,"line":11,"method":null,"native":false},{"column":30,"file":"module.js","function":"Module._compile","line":624,"method":"_compile","native":false},{"column":10,"file":"module.js","function":"Module._extensions..js","line":635,"method":".js","native":false},{"column":32,"file":"module.js","function":"Module.load","line":545,"method":"load","native":false},{"column":12,"file":"module.js","function":"tryModuleLoad","line":508,"method":null,"native":false}],"stack":["Error: listen EADDRINUSE :::3017","    at Object._errnoException (util.js:1021:11)","    at _exceptionWithHostPort (util.js:1043:20)","    at Server.setupListenHandle [as _listen2] (net.js:1344:14)","    at listenInCluster (net.js:1385:12)","    at Server.listen (net.js:1469:7)","    at Object.<anonymous> (/home/azaviruha/src/interview/Easypay/server/bin/www.js:11:24)","    at Module._compile (module.js:624:30)","    at Object.Module._extensions..js (module.js:635:10)","    at Module.load (module.js:545:32)","    at tryModuleLoad (module.js:508:12)"],"level":"error","message":"uncaughtException: listen EADDRINUSE :::3017","timestamp":"2017-10-25T04:11:05.046Z"}
{"date":"Wed Oct 25 2017 07:11:05 GMT+0300 (EEST)","process":{"pid":23119,"uid":1000,"gid":1000,"cwd":"/home/azaviruha/src/interview/Easypay/server","execPath":"/home/azaviruha/.nvm/versions/node/v8.7.0/bin/node","version":"v8.7.0","argv":["/home/azaviruha/.nvm/versions/node/v8.7.0/bin/node","/home/azaviruha/src/interview/Easypay/server/bin/www.js"],"memoryUsage":{"rss":48074752,"heapTotal":21823488,"heapUsed":15015400,"external":615481}},"os":{"loadavg":[0.2685546875,0.21630859375,0.2490234375],"uptime":298440},"trace":[{"column":11,"file":"util.js","function":"Object._errnoException","line":1021,"method":"_errnoException","native":false},{"column":20,"file":"util.js","function":"_exceptionWithHostPort","line":1043,"method":null,"native":false},{"column":14,"file":"net.js","function":"Server.setupListenHandle [as _listen2]","line":1344,"method":"setupListenHandle [as _listen2]","native":false},{"column":12,"file":"net.js","function":"listenInCluster","line":1385,"method":null,"native":false},{"column":7,"file":"net.js","function":"Server.listen","line":1469,"method":"listen","native":false},{"column":24,"file":"/home/azaviruha/src/interview/Easypay/server/bin/www.js","function":null,"line":11,"method":null,"native":false},{"column":30,"file":"module.js","function":"Module._compile","line":624,"method":"_compile","native":false},{"column":10,"file":"module.js","function":"Module._extensions..js","line":635,"method":".js","native":false},{"column":32,"file":"module.js","function":"Module.load","line":545,"method":"load","native":false},{"column":12,"file":"module.js","function":"tryModuleLoad","line":508,"method":null,"native":false}],"stack":["Error: listen EADDRINUSE :::3017","    at Object._errnoException (util.js:1021:11)","    at _exceptionWithHostPort (util.js:1043:20)","    at Server.setupListenHandle [as _listen2] (net.js:1344:14)","    at listenInCluster (net.js:1385:12)","    at Server.listen (net.js:1469:7)","    at Object.<anonymous> (/home/azaviruha/src/interview/Easypay/server/bin/www.js:11:24)","    at Module._compile (module.js:624:30)","    at Object.Module._extensions..js (module.js:635:10)","    at Module.load (module.js:545:32)","    at tryModuleLoad (module.js:508:12)"],"level":"error","message":"uncaughtException: listen EADDRINUSE :::3017","timestamp":"2017-10-25T04:11:05.049Z"}
{"date":"Wed Oct 25 2017 07:11:05 GMT+0300 (EEST)","process":{"pid":23119,"uid":1000,"gid":1000,"cwd":"/home/azaviruha/src/interview/Easypay/server","execPath":"/home/azaviruha/.nvm/versions/node/v8.7.0/bin/node","version":"v8.7.0","argv":["/home/azaviruha/.nvm/versions/node/v8.7.0/bin/node","/home/azaviruha/src/interview/Easypay/server/bin/www.js"],"memoryUsage":{"rss":47804416,"heapTotal":21823488,"heapUsed":14747368,"external":615481}},"os":{"loadavg":[0.2685546875,0.21630859375,0.2490234375],"uptime":298440},"trace":[{"column":11,"file":"util.js","function":"Object._errnoException","line":1021,"method":"_errnoException","native":false},{"column":20,"file":"util.js","function":"_exceptionWithHostPort","line":1043,"method":null,"native":false},{"column":14,"file":"net.js","function":"Server.setupListenHandle [as _listen2]","line":1344,"method":"setupListenHandle [as _listen2]","native":false},{"column":12,"file":"net.js","function":"listenInCluster","line":1385,"method":null,"native":false},{"column":7,"file":"net.js","function":"Server.listen","line":1469,"method":"listen","native":false},{"column":24,"file":"/home/azaviruha/src/interview/Easypay/server/bin/www.js","function":null,"line":11,"method":null,"native":false},{"column":30,"file":"module.js","function":"Module._compile","line":624,"method":"_compile","native":false},{"column":10,"file":"module.js","function":"Module._extensions..js","line":635,"method":".js","native":false},{"column":32,"file":"module.js","function":"Module.load","line":545,"method":"load","native":false},{"column":12,"file":"module.js","function":"tryModuleLoad","line":508,"method":null,"native":false}],"stack":["Error: listen EADDRINUSE :::3017","    at Object._errnoException (util.js:1021:11)","    at _exceptionWithHostPort (util.js:1043:20)","    at Server.setupListenHandle [as _listen2] (net.js:1344:14)","    at listenInCluster (net.js:1385:12)","    at Server.listen (net.js:1469:7)","    at Object.<anonymous> (/home/azaviruha/src/interview/Easypay/server/bin/www.js:11:24)","    at Module._compile (module.js:624:30)","    at Object.Module._extensions..js (module.js:635:10)","    at Module.load (module.js:545:32)","    at tryModuleLoad (module.js:508:12)"],"level":"error","message":"uncaughtException: listen EADDRINUSE :::3017","timestamp":"2017-10-25T04:11:05.048Z"}
{"level":"info","message":"App starts on port  3017","timestamp":"2017-10-25T04:11:15.374Z"}
{"level":"info","message":"App starts on port  3017","timestamp":"2017-10-25T05:02:30.642Z"}
{"level":"info","message":"App starts on port  3017","timestamp":"2017-10-25T05:10:50.965Z"}
{"level":"info","message":"App starts on port  3017","timestamp":"2017-10-25T05:31:22.986Z"}
{"level":"info","message":"App starts on port  3017","timestamp":"2017-10-25T05:39:37.926Z"}
{"level":"info","message":"App starts on port  3017","timestamp":"2017-10-25T05:46:13.706Z"}
{"level":"info","message":"App starts on port  3017","timestamp":"2017-10-25T05:53:21.546Z"}
{"level":"info","message":"App starts on port  3017","timestamp":"2017-10-25T05:53:49.569Z"}
{"level":"info","message":"App starts on port  3017","timestamp":"2017-10-25T05:54:52.644Z"}
{"level":"info","message":"App starts on port  3017","timestamp":"2017-10-25T06:13:28.912Z"}
